%YAML 1.1
%TAG !u! tag:unity3d.com,2011:
--- !u!1 &4983572838279522355
GameObject:
  m_ObjectHideFlags: 0
  m_CorrespondingSourceObject: {fileID: 0}
  m_PrefabInstance: {fileID: 0}
  m_PrefabAsset: {fileID: 0}
  serializedVersion: 6
  m_Component:
  - component: {fileID: 6892416542232792761}
  m_Layer: 0
  m_Name: Modulo-Escape-Aire_B
  m_TagString: Untagged
  m_Icon: {fileID: 0}
  m_NavMeshLayer: 0
  m_StaticEditorFlags: 0
  m_IsActive: 1
--- !u!4 &6892416542232792761
Transform:
  m_ObjectHideFlags: 0
  m_CorrespondingSourceObject: {fileID: 0}
  m_PrefabInstance: {fileID: 0}
  m_PrefabAsset: {fileID: 0}
  m_GameObject: {fileID: 4983572838279522355}
  m_LocalRotation: {x: 0, y: 0, z: 0, w: 1}
  m_LocalPosition: {x: 0, y: 0, z: 0}
  m_LocalScale: {x: 1, y: 1, z: 1}
  m_Children:
  - {fileID: 7697000051782344925}
  - {fileID: 298656370789672837}
  m_Father: {fileID: 0}
  m_RootOrder: 0
  m_LocalEulerAnglesHint: {x: 0, y: 0, z: 0}
--- !u!1001 &265627846421905518
PrefabInstance:
  m_ObjectHideFlags: 0
  serializedVersion: 2
  m_Modification:
    m_TransformParent: {fileID: 6892416542232792761}
    m_Modifications:
    - target: {fileID: -8679921383154817045, guid: 27b7490199384344ba1aef9e7da23551,
        type: 3}
      propertyPath: m_LocalPosition.x
      value: 0
      objectReference: {fileID: 0}
    - target: {fileID: -8679921383154817045, guid: 27b7490199384344ba1aef9e7da23551,
        type: 3}
      propertyPath: m_LocalPosition.y
      value: 0
      objectReference: {fileID: 0}
    - target: {fileID: -8679921383154817045, guid: 27b7490199384344ba1aef9e7da23551,
        type: 3}
      propertyPath: m_LocalPosition.z
      value: 0
      objectReference: {fileID: 0}
    - target: {fileID: -8679921383154817045, guid: 27b7490199384344ba1aef9e7da23551,
        type: 3}
      propertyPath: m_LocalRotation.x
      value: -0
      objectReference: {fileID: 0}
    - target: {fileID: -8679921383154817045, guid: 27b7490199384344ba1aef9e7da23551,
        type: 3}
      propertyPath: m_LocalRotation.y
      value: -0
      objectReference: {fileID: 0}
    - target: {fileID: -8679921383154817045, guid: 27b7490199384344ba1aef9e7da23551,
        type: 3}
      propertyPath: m_LocalRotation.z
      value: -0
      objectReference: {fileID: 0}
    - target: {fileID: -8679921383154817045, guid: 27b7490199384344ba1aef9e7da23551,
        type: 3}
      propertyPath: m_LocalRotation.w
      value: 1
      objectReference: {fileID: 0}
    - target: {fileID: -8679921383154817045, guid: 27b7490199384344ba1aef9e7da23551,
        type: 3}
      propertyPath: m_RootOrder
      value: 1
      objectReference: {fileID: 0}
    - target: {fileID: -8679921383154817045, guid: 27b7490199384344ba1aef9e7da23551,
        type: 3}
      propertyPath: m_LocalEulerAnglesHint.x
      value: 0
      objectReference: {fileID: 0}
    - target: {fileID: -8679921383154817045, guid: 27b7490199384344ba1aef9e7da23551,
        type: 3}
      propertyPath: m_LocalEulerAnglesHint.y
      value: 0
      objectReference: {fileID: 0}
    - target: {fileID: -8679921383154817045, guid: 27b7490199384344ba1aef9e7da23551,
        type: 3}
      propertyPath: m_LocalEulerAnglesHint.z
      value: 0
      objectReference: {fileID: 0}
    - target: {fileID: 919132149155446097, guid: 27b7490199384344ba1aef9e7da23551,
        type: 3}
      propertyPath: m_Name
      value: EC_Modulo-Escape-Aire_B low
      objectReference: {fileID: 0}
    m_RemovedComponents: []
  m_SourcePrefab: {fileID: 100100000, guid: 27b7490199384344ba1aef9e7da23551, type: 3}
--- !u!4 &298656370789672837 stripped
Transform:
  m_CorrespondingSourceObject: {fileID: -8679921383154817045, guid: 27b7490199384344ba1aef9e7da23551,
    type: 3}
  m_PrefabInstance: {fileID: 265627846421905518}
  m_PrefabAsset: {fileID: 0}
--- !u!1001 &7880039003638662966
PrefabInstance:
  m_ObjectHideFlags: 0
  serializedVersion: 2
  m_Modification:
    m_TransformParent: {fileID: 6892416542232792761}
    m_Modifications:
    - target: {fileID: -8679921383154817045, guid: 5c3d8c639e241d14e9bee33146ddad32,
        type: 3}
      propertyPath: m_LocalPosition.x
      value: 0
      objectReference: {fileID: 0}
    - target: {fileID: -8679921383154817045, guid: 5c3d8c639e241d14e9bee33146ddad32,
        type: 3}
      propertyPath: m_LocalPosition.y
      value: 0.00004132285
      objectReference: {fileID: 0}
    - target: {fileID: -8679921383154817045, guid: 5c3d8c639e241d14e9bee33146ddad32,
        type: 3}
      propertyPath: m_LocalPosition.z
      value: 0
      objectReference: {fileID: 0}
    - target: {fileID: -8679921383154817045, guid: 5c3d8c639e241d14e9bee33146ddad32,
        type: 3}
      propertyPath: m_LocalRotation.x
      value: -0
      objectReference: {fileID: 0}
    - target: {fileID: -8679921383154817045, guid: 5c3d8c639e241d14e9bee33146ddad32,
        type: 3}
      propertyPath: m_LocalRotation.y
      value: -0
      objectReference: {fileID: 0}
    - target: {fileID: -8679921383154817045, guid: 5c3d8c639e241d14e9bee33146ddad32,
        type: 3}
      propertyPath: m_LocalRotation.z
      value: -0
      objectReference: {fileID: 0}
    - target: {fileID: -8679921383154817045, guid: 5c3d8c639e241d14e9bee33146ddad32,
        type: 3}
      propertyPath: m_LocalRotation.w
      value: 1
      objectReference: {fileID: 0}
    - target: {fileID: -8679921383154817045, guid: 5c3d8c639e241d14e9bee33146ddad32,
        type: 3}
      propertyPath: m_RootOrder
      value: 0
      objectReference: {fileID: 0}
    - target: {fileID: -8679921383154817045, guid: 5c3d8c639e241d14e9bee33146ddad32,
        type: 3}
      propertyPath: m_LocalEulerAnglesHint.x
      value: 0
      objectReference: {fileID: 0}
    - target: {fileID: -8679921383154817045, guid: 5c3d8c639e241d14e9bee33146ddad32,
        type: 3}
      propertyPath: m_LocalEulerAnglesHint.y
      value: 0
      objectReference: {fileID: 0}
    - target: {fileID: -8679921383154817045, guid: 5c3d8c639e241d14e9bee33146ddad32,
        type: 3}
      propertyPath: m_LocalEulerAnglesHint.z
      value: 0
      objectReference: {fileID: 0}
    - target: {fileID: 919132149155446097, guid: 5c3d8c639e241d14e9bee33146ddad32,
        type: 3}
      propertyPath: m_Name
      value: EC_Modulo-Escape-Aire_B high
      objectReference: {fileID: 0}
    m_RemovedComponents: []
  m_SourcePrefab: {fileID: 100100000, guid: 5c3d8c639e241d14e9bee33146ddad32, type: 3}
--- !u!4 &7697000051782344925 stripped
Transform:
  m_CorrespondingSourceObject: {fileID: -8679921383154817045, guid: 5c3d8c639e241d14e9bee33146ddad32,
    type: 3}
  m_PrefabInstance: {fileID: 7880039003638662966}
  m_PrefabAsset: {fileID: 0}
